{
	name       :"'Tupelo' Tileset, UI, and Icons",
	description:"Provides the 'Tupelo' style tileset, ui, and icons for use in Lugdunon.",
	version    :"0.0.8",
	artifact   :"https://repository.lugdunon.net/mod/net.lugdunon.world.tupelo.tui.jar",
	subsystems :[
		{key:"TILESET",impl:"net.lugdunon.world.tupelo.tui.Tileset"},
		{key:"UI",     impl:"net.lugdunon.world.tupelo.tui.UI"},
		{key:"ICONS",  impl:"net.lugdunon.world.tupelo.tui.Icons"}
	]
}